Lab6Submission
…
Question 3: Remove Stopwords

stop_words

# A tibble: 1,149 × 2
   word        lexicon
   <chr>       <chr>  
 1 a           SMART  
 2 a's         SMART  
 3 able        SMART  
 4 about       SMART  
 5 above       SMART  
 6 according   SMART  
 7 accordingly SMART  
 8 across      SMART  
 9 actually    SMART  
10 after       SMART  
# ℹ 1,139 more rows
…
top_words_by_specialty <- medscript_raw %>%
  unnest_tokens(word, TranscriptionSubjective) %>%
  filter(!str_detect(word, "\\d+")) %>%
  anti_join(stop_words) %>%
  group_by(MedicalSpecialty, word) %>%
  summarise(n = n()) %>%
  top_n(5, n)

Joining with `by = join_by(word)`
`summarise()` has grouped output by 'MedicalSpecialty'. You can override using
the `.groups` argument.

top_words_by_specialty

# A tibble: 211 × 3
# Groups:   MedicalSpecialty [41]
   MedicalSpecialty     word          n
   <chr>                <chr>     <int>
 1 Allergy / Immunology allergies    21
 2 Allergy / Immunology history      38
 3 Allergy / Immunology nasal        13
 4 Allergy / Immunology noted        23
 5 Allergy / Immunology past         13
 6 Allergy / Immunology patient      22
 7 Autopsy              anterior     47
 8 Autopsy              body         40
 9 Autopsy              inch         59
10 Autopsy              left         83
# ℹ 201 more rows
…
